Data wrangling
…
---

## 7.7. Relocate

This arguments allows you to reorganize your columns.

```r
penguins %>% 
* relocate(sex, year)
```

```
## # A tibble: 344 × 10
##    sex     year species…¹ species island bill_…² bill_…³ flipp…⁴ body_…⁵ body_…⁶
##    <fct>  <int> <chr>     <chr>   <chr>    <dbl>   <dbl>   <int>   <int>   <dbl>
##  1 male    2007 Adelie_T… Adelie  Torge…    39.1    18.7     181    3750    3.75
##  2 female  2007 Adelie_T… Adelie  Torge…    39.5    17.4     186    3800    3.8 
##  3 female  2007 Adelie_T… Adelie  Torge…    40.3    18       195    3250    3.25
##  4 <NA>    2007 Adelie_T… Adelie  Torge…    NA      NA        NA      NA   NA   
##  5 female  2007 Adelie_T… Adelie  Torge…    36.7    19.3     193    3450    3.45
##  6 male    2007 Adelie_T… Adelie  Torge…    39.3    20.6     190    3650    3.65
##  7 female  2007 Adelie_T… Adelie  Torge…    38.9    17.8     181    3625    3.62
##  8 male    2007 Adelie_T… Adelie  Torge…    39.2    19.6     195    4675    4.68
##  9 <NA>    2007 Adelie_T… Adelie  Torge…    34.1    18.1     193    3475    3.48
## 10 <NA>    2007 Adelie_T… Adelie  Torge…    42      20.2     190    4250    4.25
## # … with 334 more rows, and abbreviated variable names ¹​species_island,
## #   ²​bill_length_mm, ³​bill_depth_mm, ⁴​flipper_length_mm, ⁵​body_mass_g,
## #   ⁶​body_mass_kg
```
…
