Welcome to R
…
---

## 4.15. select(:)

También se pueden usar cadenas de caracteres (strings).  
Tanto usando como termina el nombre de la columna.

```r
Pingus %>% 
  select(ends_with("mm"))
```

```
## # A tibble: 344 × 3
##    largo_pico_mm alto_pico_mm largo_aleta_mm
##            <dbl>        <dbl>          <int>
##  1          39.1         18.7            181
##  2          39.5         17.4            186
##  3          40.3         18              195
##  4          NA           NA               NA
##  5          36.7         19.3            193
##  6          39.3         20.6            190
##  7          38.9         17.8            181
##  8          39.2         19.6            195
##  9          34.1         18.1            193
## 10          42           20.2            190
## # … with 334 more rows
```

---

## 4.16. select(:)

También se pueden usar cadenas de caracteres (strings).  
Como seleccionando como inicia el nombre de la columna.  

```r
Pingus %>% 
  select(starts_with("masa"))
```

```
## # A tibble: 344 × 1
##    masa_corporal_g
##              <int>
##  1            3750
##  2            3800
##  3            3250
##  4              NA
##  5            3450
##  6            3650
##  7            3625
##  8            4675
##  9            3475
## 10            4250
## # … with 334 more rows
```
…
---

## 1.4. filter(<=)

```r
Pingus %>%
* filter(largo_pico_mm <= 39.1)
```

```
## # A tibble: 83 × 8
##    especie isla      largo_pico_mm alto_pico_mm largo_alet…¹ masa_…² sexo   anio
##    <fct>   <fct>             <dbl>        <dbl>        <int>   <int> <fct> <int>
##  1 Adelia  Torgersen          39.1         18.7          181    3750 macho  2007
##  2 Adelia  Torgersen          36.7         19.3          193    3450 hemb…  2007
##  3 Adelia  Torgersen          38.9         17.8          181    3625 hemb…  2007
##  4 Adelia  Torgersen          34.1         18.1          193    3475 <NA>   2007
##  5 Adelia  Torgersen          37.8         17.1          186    3300 <NA>   2007
##  6 Adelia  Torgersen          37.8         17.3          180    3700 <NA>   2007
##  7 Adelia  Torgersen          38.6         21.2          191    3800 macho  2007
##  8 Adelia  Torgersen          34.6         21.1          198    4400 macho  2007
##  9 Adelia  Torgersen          36.6         17.8          185    3700 hemb…  2007
## 10 Adelia  Torgersen          38.7         19            195    3450 hemb…  2007
## # … with 73 more rows, and abbreviated variable names ¹​largo_aleta_mm,
## #   ²​masa_corporal_g
```

---

## 1.4. filter(>=)

```r
Pingus %>%
* filter(largo_pico_mm >= 39.1)
```

```
## # A tibble: 260 × 8
##    especie isla      largo_pico_mm alto_pico_mm largo_alet…¹ masa_…² sexo   anio
##    <fct>   <fct>             <dbl>        <dbl>        <int>   <int> <fct> <int>
##  1 Adelia  Torgersen          39.1         18.7          181    3750 macho  2007
##  2 Adelia  Torgersen          39.5         17.4          186    3800 hemb…  2007
##  3 Adelia  Torgersen          40.3         18            195    3250 hemb…  2007
##  4 Adelia  Torgersen          39.3         20.6          190    3650 macho  2007
##  5 Adelia  Torgersen          39.2         19.6          195    4675 macho  2007
##  6 Adelia  Torgersen          42           20.2          190    4250 <NA>   2007
##  7 Adelia  Torgersen          41.1         17.6          182    3200 hemb…  2007
##  8 Adelia  Torgersen          42.5         20.7          197    4500 macho  2007
##  9 Adelia  Torgersen          46           21.5          194    4200 macho  2007
## 10 Adelia  Biscoe             40.6         18.6          183    3550 macho  2007
## # … with 250 more rows, and abbreviated variable names ¹​largo_aleta_mm,
## #   ²​masa_corporal_g
```

---

## 1.4. filter(&)

```r
Pingus %>%
* filter(isla == 'Biscoe' & especie =='Adelia')
```

```
## # A tibble: 44 × 8
##    especie isla   largo_pico_mm alto_pico_mm largo_aleta_mm masa_c…¹ sexo   anio
##    <fct>   <fct>          <dbl>        <dbl>          <int>    <int> <fct> <int>
##  1 Adelia  Biscoe          37.8         18.3            174     3400 hemb…  2007
##  2 Adelia  Biscoe          37.7         18.7            180     3600 macho  2007
##  3 Adelia  Biscoe          35.9         19.2            189     3800 hemb…  2007
##  4 Adelia  Biscoe          38.2         18.1            185     3950 macho  2007
##  5 Adelia  Biscoe          38.8         17.2            180     3800 macho  2007
##  6 Adelia  Biscoe          35.3         18.9            187     3800 hemb…  2007
##  7 Adelia  Biscoe          40.6         18.6            183     3550 macho  2007
##  8 Adelia  Biscoe          40.5         17.9            187     3200 hemb…  2007
##  9 Adelia  Biscoe          37.9         18.6            172     3150 hemb…  2007
## 10 Adelia  Biscoe          40.5         18.9            180     3950 macho  2007
## # … with 34 more rows, and abbreviated variable name ¹​masa_corporal_g
```
…
---

# 2.4. Unite

Este argumento sirve para **unir** valores de dos columnas en una columna.

```r
(Pingus<-Pingus %>% 
  unite(col = especie_isla,
        c("especie", "isla"),
        sep = ": "))
```

```
## # A tibble: 344 × 7
##    especie_isla      largo_pico_mm alto_pico_mm largo_alet…¹ masa_…² sexo   anio
##    <chr>                     <dbl>        <dbl>        <int>   <int> <fct> <int>
##  1 Adelia: Torgersen          39.1         18.7          181    3750 macho  2007
##  2 Adelia: Torgersen          39.5         17.4          186    3800 hemb…  2007
##  3 Adelia: Torgersen          40.3         18            195    3250 hemb…  2007
##  4 Adelia: Torgersen          NA           NA             NA      NA <NA>   2007
##  5 Adelia: Torgersen          36.7         19.3          193    3450 hemb…  2007
##  6 Adelia: Torgersen          39.3         20.6          190    3650 macho  2007
##  7 Adelia: Torgersen          38.9         17.8          181    3625 hemb…  2007
##  8 Adelia: Torgersen          39.2         19.6          195    4675 macho  2007
##  9 Adelia: Torgersen          34.1         18.1          193    3475 <NA>   2007
## 10 Adelia: Torgersen          42           20.2          190    4250 <NA>   2007
## # … with 334 more rows, and abbreviated variable names ¹​largo_aleta_mm,
## #   ²​masa_corporal_g
```
…
Ojo: borra las columnas originales, si no queremos que las borre debemos agregar **remove = FALSE.**

```r
(Pingus<-Pingus %>% 
  separate(col = especie_isla,
           into = c("especie", "isla"),
           sep = ":",
*          remove = FALSE))
```

```
## # A tibble: 344 × 9
##    especie_isla      especie isla    largo…¹ alto_…² largo…³ masa_…⁴ sexo   anio
##    <chr>             <chr>   <chr>     <dbl>   <dbl>   <int>   <int> <fct> <int>
##  1 Adelia: Torgersen Adelia  " Torg…    39.1    18.7     181    3750 macho  2007
##  2 Adelia: Torgersen Adelia  " Torg…    39.5    17.4     186    3800 hemb…  2007
##  3 Adelia: Torgersen Adelia  " Torg…    40.3    18       195    3250 hemb…  2007
##  4 Adelia: Torgersen Adelia  " Torg…    NA      NA        NA      NA <NA>   2007
##  5 Adelia: Torgersen Adelia  " Torg…    36.7    19.3     193    3450 hemb…  2007
##  6 Adelia: Torgersen Adelia  " Torg…    39.3    20.6     190    3650 macho  2007
##  7 Adelia: Torgersen Adelia  " Torg…    38.9    17.8     181    3625 hemb…  2007
##  8 Adelia: Torgersen Adelia  " Torg…    39.2    19.6     195    4675 macho  2007
##  9 Adelia: Torgersen Adelia  " Torg…    34.1    18.1     193    3475 <NA>   2007
## 10 Adelia: Torgersen Adelia  " Torg…    42      20.2     190    4250 <NA>   2007
## # … with 334 more rows, and abbreviated variable names ¹​largo_pico_mm,
## #   ²​alto_pico_mm, ³​largo_aleta_mm, ⁴​masa_corporal_g
```

---

# 2.6. Rename

Este argumento **cambia** el nombre de la columna.  
El nuevo nombre se debe poner primero y el nombre anterior después.

```r
Pingus %>% 
  rename(peso = masa_corporal_g)
```

```
## # A tibble: 344 × 9
##    especie_isla      especie isla      largo…¹ alto_…² largo…³  peso sexo   anio
##    <chr>             <chr>   <chr>       <dbl>   <dbl>   <int> <int> <fct> <int>
##  1 Adelia: Torgersen Adelia  " Torger…    39.1    18.7     181  3750 macho  2007
##  2 Adelia: Torgersen Adelia  " Torger…    39.5    17.4     186  3800 hemb…  2007
##  3 Adelia: Torgersen Adelia  " Torger…    40.3    18       195  3250 hemb…  2007
##  4 Adelia: Torgersen Adelia  " Torger…    NA      NA        NA    NA <NA>   2007
##  5 Adelia: Torgersen Adelia  " Torger…    36.7    19.3     193  3450 hemb…  2007
##  6 Adelia: Torgersen Adelia  " Torger…    39.3    20.6     190  3650 macho  2007
##  7 Adelia: Torgersen Adelia  " Torger…    38.9    17.8     181  3625 hemb…  2007
##  8 Adelia: Torgersen Adelia  " Torger…    39.2    19.6     195  4675 macho  2007
##  9 Adelia: Torgersen Adelia  " Torger…    34.1    18.1     193  3475 <NA>   2007
## 10 Adelia: Torgersen Adelia  " Torger…    42      20.2     190  4250 <NA>   2007
## # … with 334 more rows, and abbreviated variable names ¹​largo_pico_mm,
## #   ²​alto_pico_mm, ³​largo_aleta_mm
```
---

# 2.6. Rename

Este argumento sirve para cambiar el nombre de varias columnas.  
El nuevo nombre se pone primero y luego se pone el nombre anterior.

```r
Pingus %>% 
  rename(peso=masa_corporal_g, 
         temporada=anio)
```

```
## # A tibble: 344 × 9
##    especie_isla      especie isla    largo…¹ alto_…² largo…³  peso sexo  tempo…⁴
##    <chr>             <chr>   <chr>     <dbl>   <dbl>   <int> <int> <fct>   <int>
##  1 Adelia: Torgersen Adelia  " Torg…    39.1    18.7     181  3750 macho    2007
##  2 Adelia: Torgersen Adelia  " Torg…    39.5    17.4     186  3800 hemb…    2007
##  3 Adelia: Torgersen Adelia  " Torg…    40.3    18       195  3250 hemb…    2007
##  4 Adelia: Torgersen Adelia  " Torg…    NA      NA        NA    NA <NA>     2007
##  5 Adelia: Torgersen Adelia  " Torg…    36.7    19.3     193  3450 hemb…    2007
##  6 Adelia: Torgersen Adelia  " Torg…    39.3    20.6     190  3650 macho    2007
##  7 Adelia: Torgersen Adelia  " Torg…    38.9    17.8     181  3625 hemb…    2007
##  8 Adelia: Torgersen Adelia  " Torg…    39.2    19.6     195  4675 macho    2007
##  9 Adelia: Torgersen Adelia  " Torg…    34.1    18.1     193  3475 <NA>     2007
## 10 Adelia: Torgersen Adelia  " Torg…    42      20.2     190  4250 <NA>     2007
## # … with 334 more rows, and abbreviated variable names ¹​largo_pico_mm,
## #   ²​alto_pico_mm, ³​largo_aleta_mm, ⁴​temporada
```

---

# 2.7. Relocate

Este argumento sirve para mover columnas al inicio del data frame.

```r
Pingus %>% 
  relocate(sexo, anio)
```

```
## # A tibble: 344 × 9
##    sexo    anio especie_isla      especie isla   largo…¹ alto_…² largo…³ masa_…⁴
##    <fct>  <int> <chr>             <chr>   <chr>    <dbl>   <dbl>   <int>   <int>
##  1 macho   2007 Adelia: Torgersen Adelia  " Tor…    39.1    18.7     181    3750
##  2 hembra  2007 Adelia: Torgersen Adelia  " Tor…    39.5    17.4     186    3800
##  3 hembra  2007 Adelia: Torgersen Adelia  " Tor…    40.3    18       195    3250
##  4 <NA>    2007 Adelia: Torgersen Adelia  " Tor…    NA      NA        NA      NA
##  5 hembra  2007 Adelia: Torgersen Adelia  " Tor…    36.7    19.3     193    3450
##  6 macho   2007 Adelia: Torgersen Adelia  " Tor…    39.3    20.6     190    3650
##  7 hembra  2007 Adelia: Torgersen Adelia  " Tor…    38.9    17.8     181    3625
##  8 macho   2007 Adelia: Torgersen Adelia  " Tor…    39.2    19.6     195    4675
##  9 <NA>    2007 Adelia: Torgersen Adelia  " Tor…    34.1    18.1     193    3475
## 10 <NA>    2007 Adelia: Torgersen Adelia  " Tor…    42      20.2     190    4250
## # … with 334 more rows, and abbreviated variable names ¹​largo_pico_mm,
## #   ²​alto_pico_mm, ³​largo_aleta_mm, ⁴​masa_corporal_g
```
…
